simulation/qsim/projetoFinal.msim.vcd
$comment
	File created using the following command:
		vcd file projetoFinal.msim.vcd -direction
$end
$date
	Wed Nov 29 19:57:23 2023
$end
$version
	ModelSim Version 10.5b
$end
$timescale
	1ps
$end

$scope module toplevel_vhd_vec_tst $end
$var wire 1 ! clk $end
$var wire 1 " reset_signal $end
$var wire 1 # saida [7] $end
$var wire 1 $ saida [6] $end
$var wire 1 % saida [5] $end
$var wire 1 & saida [4] $end
$var wire 1 ' saida [3] $end
$var wire 1 ( saida [2] $end
$var wire 1 ) saida [1] $end
$var wire 1 * saida [0] $end

$scope module i1 $end
$var wire 1 + gnd $end
$var wire 1 , vcc $end
$var wire 1 - unknown $end
$var wire 1 . devoe $end
$var wire 1 / devclrn $end
$var wire 1 0 devpor $end
$var wire 1 1 ww_devoe $end
$var wire 1 2 ww_devclrn $end
$var wire 1 3 ww_devpor $end
$var wire 1 4 ww_clk $end
$var wire 1 5 ww_reset_signal $end
$var wire 1 6 ww_saida [7] $end
$var wire 1 7 ww_saida [6] $end
$var wire 1 8 ww_saida [5] $end
$var wire 1 9 ww_saida [4] $end
$var wire 1 : ww_saida [3] $end
$var wire 1 ; ww_saida [2] $end
$var wire 1 < ww_saida [1] $end
$var wire 1 = ww_saida [0] $end
$var wire 1 > \clk~input_o\ $end
$var wire 1 ? \reset_signal~input_o\ $end
$var wire 1 @ \saida[0]~output_o\ $end
$var wire 1 A \saida[1]~output_o\ $end
$var wire 1 B \saida[2]~output_o\ $end
$var wire 1 C \saida[3]~output_o\ $end
$var wire 1 D \saida[4]~output_o\ $end
$var wire 1 E \saida[5]~output_o\ $end
$var wire 1 F \saida[6]~output_o\ $end
$var wire 1 G \saida[7]~output_o\ $end
$upscope $end
$upscope $end
$enddefinitions $end
#0
$dumpvars
0!
1"
0+
1,
x-
1.
1/
10
11
12
13
04
15
0>
1?
0@
0A
0B
0C
0D
0E
0F
0G
06
07
08
09
0:
0;
0<
0=
0#
0$
0%
0&
0'
0(
0)
0*
$end
#40000
1!
14
1>
#80000
0!
04
0>
#90000
0"
05
0?
#120000
1!
14
1>
#160000
0!
04
0>
#200000
1!
14
1>
#240000
0!
04
0>
#280000
1!
14
1>
#320000
0!
04
0>
#360000
1!
14
1>
#400000
0!
04
0>
#440000
1!
14
1>
#480000
0!
04
0>
#520000
1!
14
1>
#560000
0!
04
0>
#600000
1!
14
1>
#640000
0!
04
0>
#680000
1!
14
1>
#720000
0!
04
0>
#760000
1!
14
1>
#800000
0!
04
0>
#840000
1!
14
1>
#880000
0!
04
0>
#920000
1!
14
1>
#960000
0!
04
0>
